v 20201216 2
C 40000 40000 0 0 0 title-B.sym
G 51300 43262 3700 2179 0 0 0
./parts/220V-AC_5V-DC Power Supply/220V-AC_to_5V-DC_700mA_transformed_nowhite.png
G 49800 44057 1000 1075 0 0 0
./parts/AMS1117 5V to 3.3V/AMS1117_nowhite.png
G 51700 46142 3100 2758 0 0 0
./parts/Relay/relay_transparent_gray.png
G 49600 47247 1600 1296 0 0 0
./parts/Relay Driver NUD3160 JW8/IMG_20200818_171408_labeled.png
G 41200 40302 1300 3911 270 0 0
./parts/128*32px OLED Display/0,91inch_128*32px_oled_display.png
G 40380 44500 920 1200 270 0 0
./parts/GY-BME280 3in1 Sensor/bme280.jpg
G 43600 42439 4270 6025 0 0 0
./parts/ESP32/ESP32_labels_inside_v3.png
T 55700 44700 9 16 1 0 0 0 1
AC in
T 55700 48400 9 16 1 0 0 0 1
AC out
N 54500 45000 56700 45000 4
N 55600 45000 55600 48300 4
N 55600 48300 56700 48300 4
N 54500 48700 56700 48700 5
N 54500 44600 56700 44600 1
N 55300 44600 55300 45500 1
N 55300 45500 51500 45500 1
N 51500 45500 51500 47600 1
N 51500 47600 51900 47600 1
N 50900 44600 51600 44600 1
N 50900 44600 50900 47300 1
N 51600 44100 50638 44099 2
N 51200 44100 51200 46500 2
N 51200 46500 52367 46509 2
N 47800 46700 50900 46700 1
N 49600 44100 49600 46700 1
N 49600 44100 49935 44100 1
N 52400 48700 50400 48700 1
N 50400 48700 50400 48500 1
T 50000 47400 9 9 1 0 0 0 1
NUD3160
T 50900 43800 8 12 1 0 0 0 1
+5V
T 49600 41900 8 12 1 0 0 0 1
+3.3V
C 47600 47800 1 0 0 serial_adapter_vertical_mirrored.sym
{
T 49400 49600 5 10 0 0 0 0 1
device=CONNECTOR_6
T 47500 49800 5 10 1 1 0 0 1
refdes=serial adapter
}
N 48200 45500 47800 45500 10
N 48200 45200 47800 45200 11
N 43700 46100 43000 46100 11
N 43700 46400 42500 46400 8
N 43700 44600 43100 44600 12
N 43700 44300 43200 44300 11
N 47100 40900 47100 42500 10
N 43700 43400 43300 43400 7
N 43700 42800 43500 42800 6
N 48500 45800 47800 45800 12
N 48500 48900 48500 45800 12
N 48200 48900 48200 45500 10
N 43400 46700 43700 46700 1
N 43400 48900 43400 46700 1
N 41600 48900 47300 48900 1
N 47900 48900 47900 48700 8
N 47900 48700 43200 48700 8
N 43200 48700 43200 46400 8
N 43000 46100 43000 48800 11
N 47600 48800 43000 48800 11
N 47600 48900 47600 48800 11
N 48800 40900 48800 48900 7
N 48800 42800 47800 42800 7
N 42600 46400 42600 41800 2
N 50300 41800 42600 41800 8
N 50300 44100 50300 41800 2
C 42100 47500 1 0 0 resistor-1.sym
{
T 42400 47900 5 10 0 0 0 0 1
device=RESISTOR
T 42300 47800 5 10 1 1 0 0 1
refdes=10kΩ
}
N 42600 47200 42600 46400 2
C 41600 46200 1 0 0 capacitor-1.sym
{
T 41800 46900 5 10 0 0 0 0 1
device=CAPACITOR
T 41800 46700 5 10 1 1 0 0 1
refdes=22µF
T 41800 47100 5 10 0 0 0 0 1
symversion=0.1
}
N 48300 46100 47800 46100 14
N 48300 41900 48300 46100 14
N 48300 41900 42700 41900 14
N 42700 41900 42700 45200 14
N 42700 45200 41200 45200 14
N 42600 45600 41200 45600 8
N 41800 45600 41800 44000 8
N 41600 48900 41600 44000 1
N 41200 45400 41600 45400 1
N 42000 44000 42000 45200 14
N 42800 45000 41200 45000 11
N 42200 44000 42200 45000 11
N 42800 42000 42800 45000 11
N 48200 42000 42800 42000 11
N 48200 42000 48200 45200 11
N 49200 44600 47800 44600 13
N 49900 47300 49900 46900 13
N 49900 46900 49200 46900 13
N 49200 46900 49200 44600 13
N 48000 43100 47800 43100 9
N 48000 40900 48000 43100 9
N 46800 42500 46800 40900 12
N 43500 42800 43500 40900 6
N 43100 44600 43100 40900 12
N 43200 44300 43200 40900 11
N 43300 43400 43300 40900 7
N 43400 40900 43400 43100 10
N 43400 43100 43700 43100 10
T 42900 40600 9 12 1 0 0 0 1
9 8 7 6 5               4       Touch fields       3   2             0            1
N 44700 40900 44700 42500 9
N 42100 47600 42100 47200 2
N 42600 47200 42100 47200 2
